water_level_teluk_siwak,water_level_bintang_ninggi,datetime,date,month,year,hours,d_2_weather_puruk_cahu,d_1_weather_puruk_cahu,d_2_weather_muara_taweh,d_1_weather_muara_taweh,actual_weather_puruk_cahu,actual_weather_jamut,actual_weather_tahup,actual_weather_muara_taweh,actual_weather_bintang_ninggi,water_level_diff_puruk_cahu,water_level_diff_jamut,water_level_diff_tuhup,water_level_diff_muara_taweh,water_level_diff_bintang_ninggi,water_level_diff_terusan
4.2,6.7,6 June 2023 07:00,6,June,2023,07:00,Berawan,Berawan,Berawan,Berawan,Berawan,Berawan,Cerah,Berawan,Berawan,0.5,0.35,0.2,2.6,1,1.3
5.5,7.7,7 June 2023 07:00,7,June,2023,07:00,Berawan,Berawan,Berawan,Hujan Ringan,Berawan,Berawan,Berawan,Hujan,Berawan,0.2,0.6,0.7,0.7,0.5,0.2
5.7,8.2,8 June 2023 07:00,8,June,2023,07:00,Berawan,Berawan,Berawan,Berawan,Berawan,Berawan,Berawan,Berawan,Berawan,-1.4,-1.1,-0.8,-0.2,0.1,0.6
6.3,8.3,9 June 2023 07:00,9,June,2023,07:00,Berawan,Berawan,Berawan,Berawan,Berawan,Berawan,Berawan,Berawan,Berawan,-0.6,-0.75,-1,-1.15,-0.8,-0.4
5.9,7.5,10 June 2023 07:00,10,June,2023,07:00,Hujan Ringan,Berawan,Hujan Ringan,Berawan,Berawan,Berawan,Cerah,Berawan,Berawan,1.8,1.5,1.2,-0.05,-0.2,-0.4
5.5,7.3,11 June 2023 07:00,11,June,2023,07:00,Berawan,Berawan,Berawan,Berawan,Berawan,Berawan,Cerah,Berawan,Berawan,0.7,0.6,0.7,1,0.6,0.4
5.9,7.9,12 June 2023 07:00,12,June,2023,07:00,Berawan,Berawan,Berawan,Berawan,Berawan,Berawan,Cerah,Berawan,Berawan,-1.7,-1.15,-0.9,0,0.2,0.2
6.1,8.1,13 June 2023 07:00,13,June,2023,07:00,Berawan,Berawan,Berawan,Berawan,Berawan,Berawan,Cerah,Berawan,Berawan,-0.8,-1.5,-1.5,-1.3,-0.8,-0.8
5.3,7.3,14 June 2023 07:00,14,June,2023,07:00,Hujan Ringan,Berawan,Hujan Ringan,Berawan,Berawan,Berawan,Cerah,Berawan,Berawan,-0.5,-0.1,-0.3,-0.75,-0.7,-0.6
4.7,6.6,15 June 2023 07:00,15,June,2023,07:00,Berawan,Berawan,Berawan,Hujan Sedang,Berawan,Berawan,Berawan,Berawan,Berawan,-0.1,0.1,0.3,0.35,0.2,-0.3
4.4,6.8,16 June 2023 07:00,16,June,2023,07:00,Berawan,Berawan,Berawan,Berawan,Berawan,Berawan,Berawan,Berawan,Berawan,0.6,-0.2,-0.2,0.3,0.5,0.2
4.6,7.3,17 June 2023 07:00,17,June,2023,07:00,Berawan,Berawan,Berawan,Berawan,Hujan,Berawan,Hujan,Hujan,Hujan,1.5,2.8,2.8,2.2,1.5,0.2
4.8,8.8,18 June 2023 07:00,18,June,2023,07:00,Berawan,Berawan,Berawan,Berawan,Berawan,Berawan,Berawan,Berawan,Berawan,1.1,1.35,1,1,0.9,0.7
5.5,9.7,19 June 2023 07:00,19,June,2023,07:00,Berawan,Berawan,Berawan,Berawan,Berawan,Berawan,Cerah,Berawan,Berawan,-0.3,0.1,0.3,0.4,0.4,0.6
6.1,10.1,20 June 2023 07:00,20,June,2023,07:00,Berawan,Berawan,Berawan,Berawan,Berawan,Hujan,Hujan,Hujan,Berawan,-0.1,-1.05,-3.9,0,-2.8,0
6.1,7.3,21 June 2023 07:00,21,June,2023,07:00,Berawan,Berawan,Berawan,Berawan,Berawan,Hujan,Cerah,Berawan,Berawan,-2.3,-2.3,1.1,-1.55,1.6,0.3
6.4,8.9,22 June 2023 07:00,22,June,2023,07:00,Berawan,Berawan,Berawan,Berawan,Berawan,Berawan,Cerah,Berawan,Berawan,-0.8,-2.2,-2.3,-2.05,-1.6,-0.9
5.5,7.3,23 June 2023 07:00,23,June,2023,07:00,Berawan,Berawan,Berawan,Berawan,Berawan,Berawan,Cerah,Berawan,Berawan,-0.5,-1.5,-1.2,-1.8,-1.8,-1.2
4.3,5.5,24 June 2023 07:00,24,June,2023,07:00,Berawan,Berawan,Berawan,Berawan,Berawan,Berawan,Cerah,Berawan,Berawan,-0.9,-0.8,-1,-0.8,-1.3,-0.8
3.5,4.2,25 June 2023 07:00,25,June,2023,07:00,Berawan,Berawan,Berawan,Berawan,Berawan,Berawan,Berawan,Berawan,Berawan,0.9,1.2,0.4,-1,-0.8,-1
2.5,3.4,26 June 2023 07:00,26,June,2023,07:00,Berawan,Berawan,Berawan,Berawan,Berawan,Berawan,Cerah,Berawan,Berawan,0.3,1.2,1.6,1.2,0.6,-0.5
2,4,27 June 2023 07:00,27,June,2023,07:00,Berawan,Berawan,Berawan,Berawan,Berawan,Berawan,Cerah,Berawan,Berawan,-0.3,-1.2,1.4,-1.2,3.3,0.5
2.5,7.3,28 June 2023 07:00,28,June,2023,07:00,Hujan Ringan,Berawan,Berawan,Berawan,Berawan,Berawan,Cerah,Berawan,Berawan,-0.5,0.5,-2,1.1,-2.7,0.5
3,4.6,29 June 2023 07:00,29,June,2023,07:00,Berawan,Berawan,Berawan,Berawan,Berawan,Berawan,Berawan,Berawan,Berawan,0.4,0.3,0,0.2,0,0.3
3.3,4.6,30 June 2023 07:00,30,June,2023,07:00,Berawan,Berawan,Berawan,Berawan,Berawan,Hujan,Berawan,Berawan,Berawan,-0.2,-0.1,0.3,0.4,0.4,0.1
3.4,5,1 July 2023 07:00,1,July,2023,07:00,Berawan,Berawan,Berawan,Berawan,Berawan,Hujan,Berawan,Berawan,Berawan,0.1,-0.1,-0.3,0,0.1,0.1
3.5,5.1,2 July 2023 07:00,2,July,2023,07:00,Berawan,Berawan,Berawan,Berawan,Berawan,Hujan,Berawan,Berawan,Berawan,2,0,0.4,0.2,0.1,0
3.5,5.2,3 July 2023 07:00,3,July,2023,07:00,Berawan,Berawan,Berawan,Berawan,Hujan,Hujan,Cerah,Berawan,Hujan,1.4,2.7,2.9,1.5,1.1,0.1
3.6,6.3,4 July 2023 07:00,4,July,2023,07:00,Berawan,Berawan,Berawan,Berawan,Berawan,Hujan,Kabut,Berawan,Berawan,0.8,1.7,0.8,1.2,1.2,1
4.6,7.5,5 July 2023 07:00,5,July,2023,07:00,Berawan,Berawan,Berawan,Berawan,Berawan,Berawan,Cerah,Berawan,Berawan,-0.5,-0.4,-0.2,0.5,0.5,0.3
4.9,8,6 July 2023 07:00,6,July,2023,07:00,Hujan Ringan,Berawan,Berawan,Berawan,Berawan,Hujan,Cerah,Berawan,Berawan,-0.7,-2.3,-0.5,-0.8,-0.4,0.9
5.8,7.6,7 July 2023 07:00,7,July,2023,07:00,Berawan,Berawan,Berawan,Berawan,Berawan,Hujan,Berawan,Berawan,Berawan,0,0.2,-1.5,-0.7,-0.6,-0.6
5.2,7,8 July 2023 07:00,8,July,2023,07:00,Berawan,Berawan,Berawan,Berawan,Hujan,Hujan,Hujan,Hujan,Hujan,0.9,2.4,1.6,0.5,0.3,0.2
5.4,7.3,9 July 2023 07:00,9,July,2023,07:00,Berawan,Berawan,Berawan,Berawan,Berawan,Berawan,Berawan,Berawan,Berawan,0.9,1.4,1.9,1.7,1.2,0.1
5.5,8.5,10 July 2023 07:00,10,July,2023,07:00,Berawan,Berawan,Berawan,Berawan,Berawan,Berawan,Cerah,Berawan,Berawan,-0.5,0,0.4,0.5,0.7,0.7
6.2,9.2,11 July 2023 07:00,11,July,2023,07:00,Berawan,Berawan,Berawan,Berawan,Berawan,Hujan,Kabut,Berawan,Berawan,-1.6,-2.2,-1.9,-0.5,-0.2,0.3
6.5,9,12 July 2023 07:00,12,July,2023,07:00,Berawan,Berawan,Berawan,Berawan,Berawan,Berawan,Kabut,Berawan,Berawan,-1.2,-1.8,-2,-1.8,-1.4,-0.2
6.3,7.6,13 July 2023 07:00,13,July,2023,07:00,Berawan,Berawan,Berawan,Berawan,Berawan,Berawan,Cerah,Berawan,Berawan,-1,-0.8,-0.9,-1.2,-1.2,-1.6
4.7,6.4,14 July 2023 07:00,14,July,2023,07:00,Berawan,Berawan,Berawan,Berawan,Berawan,Berawan,Kabut,Berawan,Berawan,-0.7,-1.2,-0.9,-0.9,-1.1,-1
3.7,5.3,15 July 2023 07:00,15,July,2023,07:00,Berawan,Berawan,Berawan,Berawan,Berawan,Hujan,Berawan,Berawan,Berawan,-0.5,-1,-0.2,-0.7,-0.1,-0.6
3.1,5.2,16 July 2023 07:00,16,July,2023,07:00,Berawan,Berawan,Hujan Ringan,Berawan,Berawan,Berawan,Berawan,Berawan,Berawan,0,0.7,-0.4,0,-0.7,-0.1
3,4.5,17 July 2023 07:00,17,July,2023,07:00,Berawan,Berawan,Berawan,Berawan,Hujan,Berawan,Hujan,Berawan,Hujan,1.9,2.3,2.5,0.7,0.4,-0.1
2.9,4.9,18 July 2023 07:00,18,July,2023,07:00,Berawan,Berawan,Berawan,Berawan,Berawan,Berawan,Cerah,Kabut,Berawan,-0.1,0,0.2,1.3,1.3,0.9
3.8,6.2,19 July 2023 07:00,19,July,2023,07:00,Berawan,Berawan,Berawan,Berawan,Berawan,Berawan,Kabut,Berawan,Berawan,-0.8,0,-0.5,-0.3,0,0.6
4.4,6.2,20 July 2023 07:00,20,July,2023,07:00,Berawan,Berawan,Berawan,Berawan,Berawan,Hujan,Hujan,Hujan,Berawan,0.4,-0.3,-0.5,-0.1,-0.1,-0.3
4.1,6.1,21 July 2023 07:00,21,July,2023,07:00,Berawan,Berawan,Berawan,Berawan,Berawan,Hujan,Berawan,Berawan,Berawan,1.5,0.9,0.6,0.1,-0.1,-0.1
4,6,22 July 2023 07:00,22,July,2023,07:00,Berawan,Berawan,Berawan,Berawan,Berawan,Hujan,Berawan,Berawan,Berawan,-0.1,0.3,0.9,0.8,0.7,0.2
4.2,6.7,23 July 2023 07:00,23,July,2023,07:00,Berawan,Berawan,Berawan,Berawan,Berawan,Berawan,Kabut,Berawan,Berawan,-0.9,-1.1,-0.9,-0.3,0,0.4
4.6,6.7,24 July 2023 07:00,24,July,2023,07:00,Berawan,Berawan,Berawan,Berawan,Berawan,Berawan,Cerah,Berawan,Berawan,-1,-1.3,-1.5,-1,-0.8,-0.3
4.3,5.9,25 July 2023 07:00,25,July,2023,07:00,Berawan,Berawan,Berawan,Berawan,Berawan,Berawan,Cerah,Berawan,Berawan,-0.7,-1.3,-1.2,-1.2,-1,-0.7
3.6,4.9,26 July 2023 07:00,26,July,2023,07:00,Berawan,Berawan,Berawan,Berawan,Berawan,Berawan,Cerah,Berawan,Berawan,-0.4,-0.7,-0.9,-1,-1,-0.6
3,3.9,27 July 2023 07:00,27,July,2023,07:00,Berawan,Berawan,Berawan,Berawan,Berawan,Berawan,Cerah,Berawan,Berawan,-0.1,0,0,-0.3,-0.6,-0.6
2.4,3.3,28 July 2023 07:00,28,July,2023,07:00,Berawan,Berawan,Berawan,Berawan,Berawan,Berawan,Cerah,Berawan,Berawan,-0.3,0.2,0,-0.2,-0.3,-0.3
2.1,3,29 July 2023 07:00,29,July,2023,07:00,Berawan,Berawan,Berawan,Berawan,Berawan,Berawan,Cerah,Berawan,Berawan,-0.4,-0.9,-0.4,-0.2,-0.1,-0.2
1.9,2.9,30 July 2023 07:00,30,July,2023,07:00,Berawan,Berawan,Berawan,Berawan,Berawan,Berawan,Kabut,Berawan,Berawan,-0.2,-0.5,-0.2,-0.2,-0.2,-0.2
1.7,2.7,31 July 2023 07:00,31,July,2023,07:00,Berawan,Berawan,Berawan,Berawan,Berawan,Berawan,Cerah,Berawan,Berawan,-0.1,-0.2,-0.7,-0.2,-0.1,-0.1
1.6,2.6,1 August 2023 07:00,1,August,2023,07:00,Berawan,Berawan,Berawan,Berawan,Berawan,Berawan,Cerah,Berawan,Berawan,-0.1,-0.3,-0.1,-0.2,0,-0.3
1.3,2.6,2 August 2023 07:00,2,August,2023,07:00,Berawan,Berawan,Berawan,Berawan,Berawan,Berawan,Cerah,Berawan,Berawan,0,-0.2,0,-0.1,-0.2,-0.2
1.1,2.4,3 August 2023 07:00,3,August,2023,07:00,Berawan,Berawan,Berawan,Berawan,Berawan,Berawan,Cerah,Berawan,Berawan,-0.1,0.6,-0.1,0,-0.1,0
1.1,2.3,4 August 2023 07:00,4,August,2023,07:00,Berawan,Berawan,Berawan,Berawan,Berawan,Berawan,Cerah,Berawan,Berawan,1.6,1.4,0.1,0.2,0,0
1.1,2.3,5 August 2023 07:00,5,August,2023,07:00,Berawan,Berawan,Berawan,Berawan,Berawan,Hujan,Cerah,Berawan,Berawan,0.1,-0.2,0.6,0.4,0.8,0.3
1.4,3.1,6 August 2023 07:00,6,August,2023,07:00,Berawan,Berawan,Berawan,Berawan,Berawan,Hujan,Cerah,Berawan,Berawan,-0.2,0.2,-0.1,0.1,-0.1,0.1
1.5,3,7 August 2023 07:00,7,August,2023,07:00,Berawan,Berawan,Hujan Ringan,Berawan,Hujan,Hujan,Hujan,Hujan,Hujan,0.2,0.9,0.2,0.6,-0.1,0.3
1.8,2.9,8 August 2023 07:00,8,August,2023,07:00,Berawan,Hujan Ringan,Berawan,Berawan,Berawan,Hujan,Kabut,Berawan,Berawan,0.4,-0.1,-0.1,0.8,0.1,0.5
2.3,3,9 August 2023 07:00,9,August,2023,07:00,Berawan,Berawan,Hujan Ringan,Berawan,Berawan,Hujan,Hujan,Berawan,Berawan,0.4,0.9,-3,0.3,-3,0.9
4.7,6.4,14 August 2023 07:00,14,August,2023,07:00,Berawan,Berawan,Berawan,Berawan,Berawan,Hujan,Hujan,Berawan,Berawan,0.6,0.9,0,0.5,0,0.2
4.9,5.95,15 August 2023 07:00,15,August,2023,07:00,Berawan,Berawan,Hujan Ringan,Berawan,Berawan,Berawan,Hujan,Berawan,Berawan,0.4,0.8,0,0.4,0,0.2
4,4.7,16 August 2023 07:00,16,August,2023,07:00,Berawan,Berawan,Berawan,Berawan,Berawan,Berawan,Hujan,Berawan,Berawan,0.9,0.7,0,0.7,0,0.8
3.4,3.3,17 August 2023 07:00,17,August,2023,07:00,Berawan,Berawan,Berawan,Berawan,Berawan,Berawan,Hujan,Berawan,Berawan,-0.3,-0.2,8.4,0.5,6.4,0.3
2.8,3,18 August 2023 07:00,18,August,2023,07:00,Berawan,Berawan,Berawan,Berawan,Berawan,Berawan,Kabut,Berawan,Berawan,-1,-2,-1.5,-0.9,-0.45,0.2
2.5,2.9,19 August 2023 07:00,19,August,2023,07:00,Berawan,Berawan,Berawan,Berawan,Berawan,Berawan,Cerah,Berawan,Berawan,-1.3,-1.8,-2.2,-1.4,-1.25,-0.9
2.5,2.8,20 August 2023 07:00,20,August,2023,07:00,Berawan,Berawan,Berawan,Berawan,Berawan,Berawan,Cerah,Berawan,Berawan,-0.6,-0.4,-1.1,-0.9,-1.4,-0.6
5.6,7.5,28 August 2023 07:00,28,August,2023,07:00,Berawan,Berawan,Berawan,Berawan,Berawan,Berawan,Cerah,Berawan,Berawan,-0.2,0.4,0.4,-0.3,-0.3,-0.6
5.9,8.3,29 August 2023 07:00,29,August,2023,07:00,Berawan,Berawan,Berawan,Berawan,Berawan,Berawan,Berawan,Berawan,Berawan,-0.3,-0.5,-0.2,0.1,-0.1,-0.3
6,8.6,30 August 2023 07:00,30,August,2023,07:00,Berawan,Berawan,Berawan,Berawan,Berawan,Berawan,Berawan,Berawan,Berawan,-0.2,-0.1,-0.3,-0.2,-0.1,0
6.2,7.7,31 August 2023 07:00,31,August,2023,07:00,Berawan,Berawan,Berawan,Berawan,Berawan,Berawan,Kabut,Berawan,Berawan,0.3,-0.3,-3.5,-0.2,-2.8,-0.1
5.5,6.3,1 September 2023 07:00,1,September,2023,07:00,Berawan,Berawan,Berawan,Berawan,Hujan,Berawan,Kabut,Berawan,Hujan,0.4,1,0,-0.2,0,-0.3
3.9,4.7,2 September 2023 07:00,2,September,2023,07:00,Berawan,Berawan,Hujan Ringan,Hujan Ringan,Berawan,Hujan,Kabut,Berawan,Berawan,0.4,0.3,0,0.6,0,-0.1
3.4,3.6,3 September 2023 07:00,3,September,2023,07:00,Berawan,Berawan,Berawan,Berawan,Hujan,Hujan,Kabut,Berawan,Hujan,4,5.4,0,1.8,0,0.5
2.7,2.9,4 September 2023 07:00,4,September,2023,07:00,Berawan,Berawan,Berawan,Berawan,Berawan,Hujan,Kabut,Berawan,Berawan,0.4,0.7,0,3.2,0,2.3
2.4,2.5,5 September 2023 07:00,5,September,2023,07:00,Berawan,Berawan,Berawan,Berawan,Berawan,Hujan,Kabut,Berawan,Berawan,-1.4,-1.1,0,0,0,1.3
2.1,2,6 September 2023 07:00,6,September,2023,07:00,Hujan Ringan,Hujan Ringan,Berawan,Berawan,Berawan,Hujan,Kabut,Berawan,Berawan,0,-1.1,0,-0.5,0,-0.1
1.8,2,7 September 2023 07:00,7,September,2023,07:00,Hujan Ringan,Hujan Ringan,Berawan,Berawan,Berawan,Hujan,Kabut,Berawan,Berawan,0.7,1.7,0,0.2,7.5,-0.4
1.6,1.8,8 September 2023 07:00,8,September,2023,07:00,Berawan,Berawan,Berawan,Berawan,Hujan,Hujan,Cerah,Hujan,Hujan,1.1,1.1,10.9,1,0.8,0.3
1.8,3.2,9 September 2023 07:00,9,September,2023,07:00,Berawan,Berawan,Berawan,Berawan,Berawan,Berawan,Cerah,Berawan,Berawan,-1.4,-1.1,-1,0,0.3,0.1
3.2,5.2,10 September 2023 07:00,10,September,2023,07:00,Berawan,Berawan,Berawan,Berawan,Berawan,Berawan,Cerah,Berawan,Berawan,-1.3,-2.4,-2.3,-1.2,-0.9,0.2
4.5,5.4,11 September 2023 07:00,11,September,2023,07:00,Berawan,Berawan,Berawan,Berawan,Berawan,Berawan,Cerah,Berawan,Berawan,-1.1,-2,-2,-1.8,-1.4,-0.7
4.1,4.7,12 September 2023 07:00,12,September,2023,07:00,Berawan,Berawan,Berawan,Berawan,Berawan,Berawan,Cerah,Berawan,Berawan,-0.7,-1.3,-1.2,-1.6,-1.6,-1.6
3.8,4.5,13 September 2023 07:00,13,September,2023,07:00,Berawan,Berawan,Berawan,Berawan,Berawan,Berawan,Cerah,Berawan,Berawan,-0.5,-0.7,-0.8,-0.85,-1.1,-0.5
3.9,5.2,14 September 2023 07:00,14,September,2023,07:00,Berawan,Berawan,Berawan,Berawan,Berawan,Berawan,Cerah,Berawan,Berawan,-0.8,-0.5,-0.4,-0.65,-0.7,-0.7
4.6,6.2,15 September 2023 07:00,15,September,2023,07:00,Berawan,Berawan,Berawan,Berawan,Berawan,Berawan,Cerah,Berawan,Berawan,-0.5,-0.4,-0.3,-0.2,-0.4,-0.3
5.2,7,16 September 2023 07:00,16,September,2023,07:00,Hujan Ringan,Hujan Ringan,Berawan,Berawan,Berawan,Berawan,Kabut,Berawan,Berawan,-0.4,-0.3,-0.1,-0.15,-0.5,-0.3
5.6,7.8,17 September 2023 07:00,17,September,2023,07:00,Hujan Ringan,Hujan Ringan,Berawan,Berawan,Berawan,Berawan,Cerah,Berawan,Berawan,-0.4,-0.1,-0.1,-0.15,0,-0.3
6.1,8.5,18 September 2023 07:00,18,September,2023,07:00,Berawan,Hujan Ringan,Hujan Ringan,Hujan Ringan,Berawan,Hujan,Cerah,Berawan,Berawan,1.5,2.7,1.2,-0.3,-0.2,-0.2
6.6,9,19 September 2023 07:00,19,September,2023,07:00,Berawan,Berawan,Berawan,Berawan,Berawan,Hujan,Berawan,Berawan,Berawan,2.2,2,3,1.9,1.4,0.2
6.7,9.1,20 September 2023 07:00,20,September,2023,07:00,Hujan Ringan,Berawan,Berawan,Berawan,Berawan,Berawan,Cerah,Berawan,Berawan,0.2,0.3,0.8,1.8,2,1.4
6.6,8.5,21 September 2023 07:00,21,September,2023,07:00,Berawan,Berawan,Berawan,Berawan,Berawan,Berawan,Cerah,Berawan,Berawan,-0.7,-1.2,-1.5,-0.3,0.2,1.3
6.2,7.3,22 September 2023 07:00,22,September,2023,07:00,Berawan,Berawan,Berawan,Hujan Ringan,Berawan,Hujan,Cerah,Berawan,Berawan,0.3,-0.5,-1.2,-0.8,-0.7,-0.4
5.1,5.8,23 September 2023 07:00,23,September,2023,07:00,Berawan,Berawan,Berawan,Berawan,Berawan,Hujan,Berawan,Berawan,Berawan,0.5,0.8,1.2,-0.5,-0.2,-0.3
3.9,4.8,24 September 2023 07:00,24,September,2023,07:00,Berawan,Berawan,Berawan,Berawan,Berawan,Hujan,Berawan,Berawan,Berawan,1,0.9,1.3,1.5,0.7,0.1
3.2,4.4,26 September 2023 07:00,26,September,2023,07:00,Berawan,Berawan,Berawan,Berawan,Berawan,Berawan,Berawan,Berawan,Berawan,0.8,1.4,1,1,1,0.7
3,3.8,27 September 2023 07:00,27,September,2023,07:00,Berawan,Berawan,Berawan,Berawan,Berawan,Berawan,Cerah,Berawan,Berawan,1.1,1.2,0.7,0.9,0.8,0.6
2.4,3.2,28 September 2023 07:00,28,September,2023,07:00,Berawan,Hujan Ringan,Berawan,Berawan,Berawan,Hujan,Berawan,Hujan,Berawan,0.9,1,1.6,0.85,0.8,0.4
2.4,2.6,30 September 2023 07:00,30,September,2023,07:00,Berawan,Berawan,Hujan Ringan,Berawan,Berawan,Hujan,Hujan,Hujan,Berawan,0.6,0.4,0.2,0.65,0.7,0.5
2.8,2.2,4 October 2023 07:00,4,October,2023,07:00,Berawan,Berawan,Hujan Ringan,Hujan Ringan,Berawan,Berawan,Berawan,Berawan,Berawan,-0.2,-0.1,0.1,0.4,0.5,0.5
2.3,3.5,7 October 2023 07:00,7,October,2023,07:00,Berawan,Berawan,Hujan Ringan,Hujan Ringan,Hujan,Hujan,Hujan,Hujan,Hujan,-1.7,-1.2,-1.1,-0.05,0.1,0.1
2.2,2.9,8 October 2023 07:00,8,October,2023,07:00,Berawan,Berawan,Berawan,Berawan,Berawan,Berawan,Berawan,Berawan,Berawan,-2.1,-1.8,-2.5,-0.85,-0.6,-0.1
2.3,2.4,9 October 2023 07:00,9,October,2023,07:00,Hujan Ringan,Hujan Ringan,Berawan,Berawan,Berawan,Hujan,Berawan,Berawan,Berawan,-1.1,-1.5,-0.2,-1.4,-1.2,-0.4
2.7,2,10 October 2023 07:00,10,October,2023,07:00,Berawan,Berawan,Berawan,Berawan,Berawan,Berawan,Hujan,Berawan,Berawan,-0.1,-1.3,-1.9,-1.7,-1.5,-1.1
3.2,1.9,11 October 2023 07:00,11,October,2023,07:00,Berawan,Berawan,Berawan,Berawan,Berawan,Berawan,Cerah,Berawan,Berawan,-0.1,0.2,0.1,-0.7,-1,-1.2
3.3,2,12 October 2023 07:00,12,October,2023,07:00,Berawan,Berawan,Berawan,Berawan,Berawan,Berawan,Cerah,Berawan,Berawan,-6.8,-198.3,-0.5,-4.9,-0.4,-4
3.3,3.5,13 October 2023 07:00,13,October,2023,07:00,Berawan,Berawan,Berawan,Hujan Ringan,,,Cerah,,,5.5,196.8,-0.7,3.9,-0.6,3.3
3.1,4.1,15 October 2023 07:00,15,October,2023,07:00,Hujan Ringan,Hujan Ringan,Berawan,Berawan,Berawan,Hujan,Cerah,Berawan,Berawan,-0.6,-0.7,-0.8,-0.6,-0.6,-0.2
2.6,4,16 October 2023 07:00,16,October,2023,07:00,Berawan,Berawan,Berawan,Berawan,Berawan,Berawan,Cerah,Berawan,Berawan,-0.4,-0.5,-0.5,-0.5,-0.6,-0.6
2.4,3.1,18 October 2023 07:00,18,October,2023,07:00,Berawan,Berawan,Hujan Ringan,Berawan,Berawan,Berawan,Cerah,Berawan,Berawan,-4.5,-195.6,-3,-2.8,-2.6,-2.5
2.6,2.5,19 October 2023 07:00,19,October,2023,07:00,Berawan,Berawan,Berawan,Berawan,-,-,-,-,-,4.3,195.7,0,2.6,0,2.5
2.8,3,20 October 2023 07:00,20,October,2023,07:00,Berawan,Berawan,Berawan,Berawan,Berawan,Berawan,Cerah,Berawan,Berawan,0.1,0.1,3,-0.1,2.2,0
3.1,2.8,21 October 2023 07:00,21,October,2023,07:00,Berawan,Berawan,Asap,Asap,Berawan,Berawan,Cerah,Berawan,Berawan,1.7,1.5,-3,0.2,-2.2,0
4.4,3.9,22 October 2023 07:00,22,October,2023,07:00,Berawan,Berawan,Asap,Asap,Berawan,Berawan,,Berawan,Berawan,-6.1,-197.3,0,-2.7,0,-2.5
4.8,3.9,23 October 2023 07:00,23,October,2023,07:00,Berawan,Berawan,Berawan,Berawan,,,,,,5.2,196.3,4,3.6,3.5,2.9
4.5,4.6,24 October 2023 07:00,24,October,2023,07:00,Berawan,Berawan,Berawan,Berawan,Berawan,Berawan,Cerah,Berawan,Berawan,-0.7,-0.9,-0.7,-0.1,-0.6,-0.1
3.8,4.5,25 October 2023 07:00,25,October,2023,07:00,Berawan,Berawan,Berawan,Berawan,Berawan,Berawan,Cerah,Berawan,Berawan,-0.6,-0.5,-0.5,-0.7,-0.5,-0.2
3.7,6.3,26 October 2023 07:00,26,October,2023,07:00,Hujan Ringan,Hujan Ringan,Berawan,Berawan,Berawan,Berawan,Cerah,Berawan,Berawan,-0.5,-0.3,-0.4,-0.3,-0.4,-0.2
4.3,5.2,27 October 2023 07:00,27,October,2023,07:00,Berawan,Berawan,Berawan,Berawan,Berawan,Berawan,Cerah,Berawan,Berawan,-0.1,-0.1,-0.1,-0.1,-0.1,-0.1
4.1,4.5,28 October 2023 07:00,28,October,2023,07:00,Berawan,Berawan,Berawan,Berawan,Hujan,Hujan,Hujan,Hujan,Hujan,2.6,3.1,0.2,0.1,0.1,0.1
3.7,5.1,29 October 2023 07:00,29,October,2023,07:00,Berawan,Berawan,Hujan Ringan,Hujan Ringan,Hujan,Hujan,Hujan,Hujan,Hujan,0.6,0.5,2.8,1.7,1.5,0.4
3.3,5.6,30 October 2023 07:00,30,October,2023,07:00,Berawan,Berawan,Berawan,Berawan,Berawan,Berawan,Cerah,Berawan,Berawan,0.1,-0.1,-5.3,0.4,-3.5,0.5
2.9,5.3,31 October 2023 07:00,31,October,2023,07:00,Berawan,Berawan,Berawan,Berawan,Berawan,Berawan,,Berawan,Berawan,0.4,0.1,5.3,-0.2,4.1,0.1
2.7,5,1 November 2023 07:00,1,November,2023,07:00,Berawan,Berawan,Berawan,Berawan,Berawan,Berawan,Cerah,Berawan,Berawan,-0.3,-0.6,-0.6,0.1,-0.1,0
2.5,4.1,2 November 2023 07:00,2,November,2023,07:00,Berawan,Berawan,Berawan,Berawan,Berawan,Berawan,Cerah,Berawan,Berawan,-1,-1,-4.7,-0.7,-4,-0.1
2.3,4.1,3 November 2023 07:00,3,November,2023,07:00,Berawan,Berawan,Berawan,Berawan,Berawan,Hujan,Cerah,Berawan,Berawan,-0.1,-0.5,3.6,-0.4,3.1,-0.1
3.2,3.1,5 November 2023 07:00,5,November,2023,07:00,Hujan Ringan,Hujan Ringan,Berawan,Berawan,Hujan,Hujan,Hujan,Hujan,Hujan,-0.1,0.1,0,-0.3,-0.6,-0.5
3.9,2.9,6 November 2023 07:00,6,November,2023,07:00,Berawan,Hujan Ringan,Berawan,Berawan,Berawan,Hujan,Cerah,Berawan,Berawan,0.4,-0.2,-0.1,-0.1,0.5,-0.1
4.3,3.3,7 November 2023 07:00,7,November,2023,07:00,Berawan,Berawan,Berawan,Berawan,Berawan,Berawan,Cerah,Berawan,Berawan,1.6,2.2,1.9,0.3,-0.2,-0.1
3.9,4.7,8 November 2023 07:00,8,November,2023,07:00,Berawan,Berawan,Berawan,Berawan,Berawan,Berawan,Cerah,Berawan,Berawan,-0.4,-0.3,-0.3,1.1,1.1,0.2
4.4,5.5,9 November 2023 07:00,9,November,2023,07:00,Berawan,Hujan Ringan,Berawan,Berawan,Hujan,Hujan,Hujan,Berawan,Hujan,0.3,0.4,-0.1,-0.2,0,0.2
5.1,5.2,10 November 2023 07:00,10,November,2023,07:00,Berawan,Hujan Ringan,Hujan Ringan,Hujan Ringan,Berawan,Berawan,Berawan,Berawan,Berawan,2.6,3,3.4,1.3,0.7,0.3
4.3,5,11 November 2023 07:00,11,November,2023,07:00,Berawan,Berawan,Berawan,Berawan,Berawan,Berawan,Cerah,Berawan,Berawan,-1,0.2,-0.4,1.8,-0.1,1.3
3.9,6.6,12 November 2023 07:00,12,November,2023,07:00,Berawan,Berawan,Berawan,Berawan,Berawan,Berawan,Cerah,Berawan,Berawan,-1.8,-2.1,-1.4,-0.7,1.8,0.4
6.3,7.6,13 November 2023 07:00,13,November,2023,07:00,Berawan,Berawan,Berawan,Berawan,Berawan,Hujan,Cerah,Berawan,Berawan,-0.7,-1.5,-0.5,-1.3,-1.1,-0.3
5.3,5.2,14 November 2023 07:00,14,November,2023,07:00,Berawan,Berawan,Berawan,Berawan,Hujan,Hujan,Hujan,Hujan,Hujan,1.4,1.2,0.1,0.2,-0.7,-0.7
4.5,5,15 November 2023 07:00,15,November,2023,07:00,Berawan,Berawan,Berawan,Berawan,Berawan,Berawan,Cerah,Berawan,Berawan,-0.3,0.6,0.7,0.2,0.6,-0.1
3.9,7,16 November 2023 07:00,16,November,2023,07:00,Hujan Ringan,Hujan Ringan,Berawan,Berawan,Berawan,Berawan,Cerah,Berawan,Berawan,-0.6,-0.2,-0.3,0.4,0.5,0.6
4.5,6,17 November 2023 07:00,17,November,2023,07:00,Berawan,Berawan,Berawan,Berawan,Berawan,Berawan,Cerah,Berawan,Berawan,-0.7,-1,-1,-0.6,-0.3,-0.2
4.6,5.5,18 November 2023 07:00,18,November,2023,07:00,Berawan,Hujan Ringan,Berawan,Berawan,Berawan,Berawan,Cerah,Berawan,Berawan,-0.5,-0.7,-1,-0.8,-0.3,-0.4
4.7,5.4,19 November 2023 07:00,19,November,2023,07:00,Hujan Ringan,Hujan Ringan,Berawan,Berawan,Berawan,Berawan,Cerah,Berawan,Berawan,-0.6,0.3,0.8,-0.3,-0.9,-0.4
4.8,5.9,20 November 2023 07:00,20,November,2023,07:00,Berawan,Berawan,Berawan,Berawan,Berawan,Berawan,Cerah,Berawan,Berawan,-0.3,-0.8,-0.8,-0.2,0,-0.4
4.7,5.7,21 November 2023 07:00,21,November,2023,07:00,Berawan,Berawan,Berawan,Berawan,Berawan,Berawan,Cerah,Berawan,Berawan,-0.3,-0.9,-4.6,-0.7,-4.1,-0.2
3.9,6.1,22 November 2023 07:00,22,November,2023,07:00,Berawan,Berawan,Berawan,Berawan,Berawan,Hujan,Hujan,Berawan,Berawan,0.5,0.3,4,-0.5,3.1,-0.2
3.6,6.1,23 November 2023 07:00,23,November,2023,07:00,Berawan,Berawan,Berawan,Berawan,Berawan,Berawan,Cerah,Berawan,Berawan,0.8,1.2,1,0.3,-0.2,-0.2
3.7,5.7,24 November 2023 07:00,24,November,2023,07:00,Berawan,Berawan,Hujan Ringan,Hujan Ringan,Berawan,Berawan,Cerah,Berawan,Berawan,0.1,0.5,0.4,0.8,0.4,1.3
4.3,5.2,25 November 2023 07:00,25,November,2023,07:00,Berawan,Berawan,Hujan Ringan,Hujan Ringan,Berawan,Hujan,Cerah,Berawan,Berawan,0.8,0.9,1.1,1.1,1.4,-0.4
5.1,5.1,26 November 2023 07:00,26,November,2023,07:00,Berawan,Berawan,Berawan,Berawan,Berawan,Berawan,Cerah,Berawan,Berawan,0.1,-0.4,-0.5,0.7,0.8,0.7
5.6,5.2,27 November 2023 07:00,27,November,2023,07:00,Berawan,Berawan,Berawan,Berawan,Berawan,Berawan,Cerah,Berawan,Berawan,0,-0.7,-0.5,-0.6,-0.3,0.4
6.9,7.6,29 November 2023 07:00,29,November,2023,07:00,Berawan,Berawan,Berawan,Berawan,Hujan,Hujan,Cerah,Berawan,Hujan,1.8,2.3,2,0.2,-0.2,-0.4
7.2,7.7,30 November 2023 07:00,30,November,2023,07:00,Berawan,Berawan,Berawan,Berawan,Berawan,Berawan,Cerah,Cerah,Berawan,1.9,1.3,1.4,1.8,1.6,0.5
8.2,8.1,1 December 2023 07:00,1,December,2023,07:00,Hujan Ringan,Hujan Ringan,Hujan Ringan,Berawan,Hujan,Hujan,Cerah,Cerah,Hujan,0.1,0.8,-1.2,0.8,1,0.7
8.5,9.8,2 December 2023 07:00,2,December,2023,07:00,Berawan,Berawan,Berawan,Hujan Ringan,Berawan,Berawan,Cerah,Cerah,Berawan,-3.8,-4.4,-0.2,-2.8,-2.4,-0.8
8.7,10.8,3 December 2023 07:00,3,December,2023,07:00,Berawan,Hujan Ringan,Berawan,Berawan,Hujan,Hujan,Cerah,Berawan,Hujan,1.8,2.3,0,0.2,-0.2,-0.4
9.1,11.4,4 December 2023 07:00,4,December,2023,07:00,Berawan,Berawan,Berawan,Berawan,Berawan,Berawan,Cerah,Berawan,Berawan,-0.2,-1.4,-1.2,1.6,2,2.4
9,11.7,5 December 2023 07:00,5,December,2023,07:00,Berawan,Berawan,Berawan,Berawan,Berawan,Hujan,Berawan,Berawan,Berawan,-0.5,-0.4,-0.4,-1.1,-1,-1
8.9,11.8,6 December 2023 07:00,6,December,2023,07:00,Berawan,Berawan,Berawan,Berawan,Berawan,Berawan,Cerah,Berawan,Berawan,-0.7,0.6,0.6,-0.3,-0.5,-0.8
8.5,11.6,7 December 2023 07:00,7,December,2023,07:00,Berawan,Berawan,Berawan,Berawan,Berawan,Berawan,Cerah,Berawan,Berawan,-0.4,-0.6,-0.6,-0.2,-0.1,-0.6
7.8,11.4,8 December 2023 07:00,8,December,2023,07:00,Hujan Ringan,Hujan Ringan,Berawan,Berawan,Berawan,Hujan,Hujan,Berawan,Berawan,-0.4,-0.8,-0.8,0.5,0.5,0.6
7.7,11,9 December 2023 07:00,9,December,2023,07:00,Berawan,Berawan,Hujan Ringan,Berawan,Berawan,Berawan,Kabut,Berawan,Berawan,1.2,1.7,0.2,0.3,-0.2,0.1
7.8,10.7,10 December 2023 07:00,10,December,2023,07:00,Hujan Ringan,Hujan Ringan,Berawan,Berawan,Berawan,Hujan,Hujan,Berawan,Berawan,0.3,-0.2,1.5,0.1,0.4,0.1
7.8,10.8,11 December 2023 07:00,11,December,2023,07:00,Berawan,Berawan,Hujan Ringan,Hujan Ringan,Hujan,Hujan,Hujan,Hujan,Hujan,-0.2,-0.3,-0.3,-0.1,0,0.1
7.3,10.6,17 December 2023 07:00,17,December,2023,07:00,Berawan,Berawan,Berawan,Berawan,Berawan,Berawan,Cerah,Berawan,Berawan,-0.3,-0.5,-0.7,-0.5,-0.4,-0.1
6.4,10.1,19 December 2023 07:00,19,December,2023,07:00,Berawan,Berawan,Hujan Ringan,Berawan,Hujan,Hujan,Cerah,Hujan,Hujan,0.3,0.3,0.2,-0.4,-0.5,-0.8
6.3,9.5,21 December 2023 07:00,21,December,2023,07:00,Berawan,Berawan,Hujan Ringan,Hujan Ringan,Berawan,Berawan,Cerah,Berawan,Berawan,0.1,-0.4,-0.1,-0.3,-0.1,-0.3
6.4,8.8,22 December 2023 07:00,22,December,2023,07:00,Berawan,Berawan,Berawan,Berawan,Berawan,Hujan,Cerah,Berawan,Berawan,1.2,1.6,1.5,0.4,0.1,0.1
6.5,8,23 December 2023 07:00,23,December,2023,07:00,Berawan,Berawan,Berawan,Berawan,Berawan,Hujan,Cerah,Berawan,Berawan,1.1,2.1,-7.4,1.5,-5.2,0.6
6.2,7,24 December 2023 07:00,24,December,2023,07:00,Hujan Ringan,Hujan Ringan,Berawan,Berawan,Berawan,Berawan,Berawan,Berawan,Berawan,-0.3,0.1,9.5,1,7.6,0.8
6.2,7.3,25 December 2023 07:00,25,December,2023,07:00,Berawan,Berawan,Berawan,Berawan,Berawan,Berawan,Berawan,Hujan,Berawan,-0.3,0,0.8,0,0.1,0.5
5.8,8.8,27 December 2023 07:00,27,December,2023,07:00,Berawan,Berawan,Berawan,Berawan,Berawan,Hujan,Cerah,Berawan,Berawan,1.6,2,3.4,1,0.4,0.6
5.9,8.6,28 December 2023 07:00,28,December,2023,07:00,Hujan Ringan,Hujan Ringan,Berawan,Berawan,Hujan,Hujan,Cerah,Hujan,Hujan,1.4,2,0.3,1.9,1.7,0.7
6.1,8.5,29 December 2023 07:00,29,December,2023,07:00,Berawan,Berawan,Berawan,Berawan,Berawan,Berawan,Cerah,Berawan,Berawan,1,1.1,0.3,0.9,1,0.3
5.6,8.8,2 January 2024 07:00,2,January,2024,07:00,Hujan Ringan,Hujan Ringan,Berawan,Berawan,Berawan,Berawan,Cerah,Berawan,Berawan,0.2,0.5,0.4,0.7,0.6,1
6,8.6,4 January 2024 07:00,4,January,2024,07:00,Hujan Ringan,Hujan Ringan,Hujan Ringan,Hujan Ringan,Berawan,Berawan,Cerah,Berawan,Berawan,-1,-0.4,0.1,0.1,0.3,0.3
6.9,8.7,5 January 2024 07:00,5,January,2024,07:00,Hujan Ringan,Hujan Ringan,Berawan,Hujan Ringan,Berawan,Hujan,Hujan,Hujan,Berawan,-0.7,-0.7,-1,-0.1,0.1,0.2
7.5,9.2,6 January 2024 07:00,6,January,2024,07:00,Berawan,Berawan,Berawan,Berawan,Berawan,Berawan,Kabut,Berawan,Berawan,-0.9,-0.6,-0.3,-0.3,-0.2,0.4
8.3,8,8 January 2024 07:00,8,January,2024,07:00,Berawan,Berawan,Berawan,Berawan,Berawan,Hujan,Berawan,Berawan,Berawan,-0.2,-0.7,-1.3,-0.2,-0.2,-0.1
8.2,7.5,10 January 2024 07:00,10,January,2024,07:00,Berawan,Berawan,Berawan,Berawan,Berawan,Berawan,Berawan,Berawan,Berawan,-0.5,-1.1,-0.6,-0.5,-0.4,-0.1
8.2,9.6,13 January 2024 07:00,13,January,2024,07:00,Hujan Ringan,Hujan Ringan,Berawan,Berawan,Hujan,Hujan,Hujan,Hujan,Hujan,-0.5,-0.9,-1,-0.5,-0.3,-0.4
8.4,10.4,14 January 2024 07:00,14,January,2024,07:00,Hujan Ringan,Hujan Ringan,Berawan,Berawan,Hujan,Hujan,Hujan,Hujan,Hujan,0.4,0.7,0.5,0.2,0.1,-0.7
9.8,10.5,20 January 2024 07:00,20,January,2024,07:00,Berawan,Berawan,Berawan,Berawan,Berawan,Berawan,Kabut,Berawan,Berawan,1.8,0.8,-11.1,0.2,-10.8,-0.1
9.9,11,21 January 2024 07:00,21,January,2024,07:00,Berawan,Hujan Ringan,Berawan,Berawan,Berawan,Berawan,Cerah,Berawan,Berawan,-0.7,0.4,0,0.2,0,0.1
9.9,11.25,22 January 2024 07:00,22,January,2024,07:00,Berawan,Berawan,Hujan Ringan,Hujan Ringan,Berawan,Hujan,Cerah,Berawan,Berawan,-1.9,-1.3,0,0,0,0
9,12.7,26 January 2024 07:00,26,January,2024,07:00,Berawan,Berawan,Berawan,Berawan,Berawan,Hujan,Cerah,Berawan,Berawan,0.1,-0.4,10.9,-0.7,10.6,0.1
3.8,12.7,31 January 2024 07:00,31,January,2024,07:00,Berawan,Berawan,Berawan,Berawan,Berawan,Berawan,Cerah,Berawan,Berawan,-9.7,-203.6,-10.9,-10.9,-10.6,-8
3.6,12.1,1 February 2024 07:00,1,February,2024,07:00,Berawan,Berawan,Berawan,Berawan,Berawan,Berawan,Kabut,Berawan,Berawan,10.2,204.1,11.3,10.5,10.1,7.7
2.9,9.3,3 February 2024 07:00,3,February,2024,07:00,Berawan,Berawan,Berawan,Berawan,Berawan,Berawan,Kabut,Berawan,Berawan,-10.2,-204.1,-11.3,-10.5,-10.1,-7.7
3.5,8,4 February 2024 07:00,4,February,2024,07:00,Berawan,Berawan,Berawan,Berawan,Berawan,Berawan,Kabut,Berawan,Berawan,8.1,201.1,9,9.7,9.5,7.5
5.9,6.1,6 February 2024 07:00,6,February,2024,07:00,Hujan Ringan,Berawan,Hujan Ringan,Hujan Ringan,Berawan,Berawan,Kabut,Berawan,Berawan,-0.8,0.4,-0.3,-0.6,-0.7,-0.1
6.6,5.4,7 February 2024 07:00,7,February,2024,07:00,Berawan,Berawan,Berawan,Berawan,Berawan,Berawan,Cerah,Berawan,Berawan,-0.5,-1.5,-1.2,-1,-0.8,-0.1
6.5,6.5,13 February 2024 07:00,13,February,2024,07:00,Berawan,Berawan,Berawan,Hujan Ringan,Berawan,Berawan,Cerah,Berawan,Berawan,-0.3,-0.7,-1.2,-1.1,-1,-0.8
7.5,7.55,15 February 2024 07:00,15,February,2024,07:00,Berawan,Berawan,Berawan,Hujan Ringan,Hujan,Hujan,Hujan,Hujan,Hujan,1.6,1.7,1.4,0.8,0.3,-0.2
7.2,6.7,17 February 2024 07:00,17,February,2024,07:00,Berawan,Berawan,Hujan Ringan,Berawan,Berawan,Berawan,Kabut,Berawan,Berawan,0.5,0.6,-7.7,1.1,-7.3,0.1
5.5,8,18 February 2024 07:00,18,February,2024,07:00,Berawan,Berawan,Berawan,Hujan Ringan,Berawan,Berawan,Berawan,Hujan,Berawan,-0.2,0,9,0.4,8.8,0.1
4,8,19 February 2024 07:00,19,February,2024,07:00,Berawan,Berawan,Berawan,Berawan,Berawan,Hujan,Berawan,Berawan,Berawan,-0.4,0,-0.4,-0.5,-0.2,0.1
3.7,8.4,20 February 2024 07:00,20,February,2024,07:00,Berawan,Berawan,Berawan,Berawan,Berawan,Hujan,Cerah,Berawan,Berawan,1,0.5,0.7,0.2,-0.1,-0.3
3.8,9.7,21 February 2024 07:00,21,February,2024,07:00,Berawan,Berawan,Berawan,Berawan,Berawan,Berawan,Kabut,Berawan,Berawan,0.1,0.1,-9.3,0.1,-8.5,0
5.2,10.1,22 February 2024 07:00,22,February,2024,07:00,Hujan Ringan,Hujan Ringan,Berawan,Berawan,Hujan,Hujan,Berawan,Berawan,Hujan,0,0.2,9.7,0.1,8.8,-0.4
5.4,9.7,24 February 2024 07:00,24,February,2024,07:00,Berawan,Berawan,Berawan,Hujan Ringan,Hujan,Hujan,Berawan,Berawan,Hujan,0.7,0.1,-0.1,-0.2,-0.2,0
8.1,4.5,27 February 2024 07:00,27,February,2024,07:00,Berawan,Berawan,Berawan,Berawan,Hujan,Hujan,Berawan,Berawan,Hujan,0.7,0.8,0.8,0.3,0.1,0.1
9.1,4.8,28 February 2024 07:00,28,February,2024,07:00,Berawan,Berawan,Berawan,Hujan Ringan,Berawan,Hujan,Hujan,Berawan,Berawan,-0.3,-0.3,-0.1,0.3,0.5,0.2
9.1,6.1,29 February 2024 07:00,29,February,2024,07:00,Berawan,Berawan,Berawan,Berawan,Berawan,Berawan,Cerah,Berawan,Berawan,8.6,201.1,8.1,0.3,,
9,6.9,1 March 2024 07:00,1,March,2024,07:00,Berawan,Berawan,Hujan Ringan,Hujan Ringan,Hujan Ringan,Hujan Ringan,Hujan Ringan,Hujan Ringan,Hujan Ringan,7.2,199.8,7.2,8.1,8,6.4
8.9,6.7,2 March 2024 07:00,2,March,2024,07:00,Berawan,Berawan,Hujan Ringan,Hujan Ringan,Hujan,Hujan,Hujan,Hujan,Hujan,8.8,202.9,0,8.1,,
8.5,8,3 March 2024 07:00,3,March,2024,07:00,Berawan,Berawan,Hujan Ringan,Hujan Ringan,Hujan Ringan,Hujan Ringan,Hujan Ringan,Hujan Ringan,Hujan,-0.1,0,10,7.6,7.5,5.7
6.5,10.7,5 March 2024 07:00,5,March,2024,07:00,Berawan,Berawan,Berawan,Hujan Ringan,Hujan,Hujan,Berawan,Berawan,Hujan,1.2,1.7,1.8,7.6,,
6.1,11.9,6 March 2024 07:00,6,March,2024,07:00,Berawan,Berawan,Berawan,Berawan,Hujan Ringan,Hujan Ringan,Hujan Ringan,Hujan Ringan,Hujan,0.7,-0.4,-11.8,9.8,0,6.1
5.3,12,8 March 2024 07:00,8,March,2024,07:00,Hujan Ringan,Hujan Ringan,Berawan,Berawan,Berawan,Hujan,Hujan,Berawan,Berawan,-0.4,-0.8,0,0.1,9.6,0.9
7.2,8.8,11 March 2024 07:00,11,March,2024,07:00,Hujan Ringan,Berawan,Hujan Ringan,Hujan Ringan,Hujan,Hujan,Hujan,Hujan,Hujan,0.5,0.4,0,1.3,0.8,0.6
7.6,8.1,12 March 2024 07:00,12,March,2024,07:00,Berawan,Berawan,Berawan,Hujan Ringan,Berawan,Berawan,Kabut,Berawan,Berawan,0.8,0.6,0,0.15,-10.4,0.6
8.8,7.6,13 March 2024 07:00,13,March,2024,07:00,Berawan,Berawan,Berawan,Hujan Ringan,Berawan,Berawan,Hujan,Berawan,Berawan,-0.4,-0.1,0,-0.45,0,0.2
8.8,7.2,14 March 2024 07:00,14,March,2024,07:00,Hujan Ringan,Hujan Ringan,Berawan,Berawan,Berawan,Hujan,Hujan,Berawan,Berawan,0.4,0.6,12,-0.6,0,0.1
8.7,6.6,15 March 2024 07:00,15,March,2024,07:00,Berawan,Berawan,Berawan,Berawan,Berawan,Berawan,Hujan,Berawan,Berawan,0.2,0.3,0.3,0,0,-0.2
8.6,6.7,16 March 2024 07:00,16,March,2024,07:00,Berawan,Berawan,Berawan,Berawan,Berawan,Hujan,Berawan,Berawan,Berawan,-0.1,-0.1,0,0.1,0,-0.1
8.5,7.8,17 March 2024 07:00,17,March,2024,07:00,Berawan,Berawan,Hujan Ringan,Hujan Ringan,Hujan,Hujan,Berawan,Hujan,Hujan,0.7,0.9,-12.3,0.8,10.5,-0.1
8.1,9.1,18 March 2024 07:00,18,March,2024,07:00,Berawan,Berawan,Berawan,Berawan,Hujan,Hujan,Kabut,Berawan,Hujan,0.6,1.1,0,0.4,0.5,0.2
7.7,10.5,19 March 2024 07:00,19,March,2024,07:00,Berawan,Berawan,Hujan Ringan,Hujan Ringan,Berawan,Berawan,Hujan,Hujan,Berawan,0.7,1,0,0.2,0.25,0.2
7,11.1,20 March 2024 07:00,20,March,2024,07:00,Berawan,Berawan,Hujan Ringan,Hujan Ringan,Berawan,Hujan,Berawan,Berawan,Berawan,0.4,0.7,15.3,0.3,-11.25,0.2
6.3,11.5,21 March 2024 07:00,21,March,2024,07:00,Berawan,Berawan,Hujan Ringan,Hujan Ringan,Hujan,Hujan,Cerah,Berawan,Hujan,-0.1,0.3,-15.3,0.5,0,0.5
6.3,12,22 March 2024 07:00,22,March,2024,07:00,Berawan,Berawan,Berawan,Berawan,Hujan,Hujan,Cerah,Berawan,Hujan,-0.3,0,0,0.7,0,0.1
3.8,11.1,25 March 2024 07:00,25,March,2024,07:00,Hujan Ringan,Hujan Ringan,Berawan,Berawan,Berawan,Hujan,Berawan,Berawan,Berawan,-1.4,-0.3,0,0.5,12.7,0.3
3.4,10.5,26 March 2024 07:00,26,March,2024,07:00,Berawan,Berawan,Berawan,Berawan,Berawan,Berawan,Cerah,Berawan,Berawan,-2.4,-0.7,0,0.3,-12.7,0.1